<mxfile host="65bd71144e">
    <diagram id="iXpXO5KfZkW7vOhcJpdq" name="Page-1">
        <mxGraphModel dx="1050" dy="639" grid="1" gridSize="10" guides="1" tooltips="1" connect="1" arrows="1" fold="1" page="1" pageScale="1" pageWidth="850" pageHeight="1100" math="0" shadow="0">
            <root>
                <mxCell id="0"/>
                <mxCell id="1" parent="0"/>
                <mxCell id="10" value="" style="group" parent="1" vertex="1" connectable="0">
                    <mxGeometry x="20" y="90" width="341" height="340" as="geometry"/>
                </mxCell>
                <mxCell id="2" value="" style="shape=ext;double=1;whiteSpace=wrap;html=1;aspect=fixed;" parent="10" vertex="1">
                    <mxGeometry x="1" width="340" height="340" as="geometry"/>
                </mxCell>
                <mxCell id="4" value="" style="line;strokeWidth=4;html=1;perimeter=backbonePerimeter;points=[];outlineConnect=0;" parent="10" vertex="1">
                    <mxGeometry x="1" y="40" width="340" height="40" as="geometry"/>
                </mxCell>
                <mxCell id="6" value="BookBank" style="text;strokeColor=none;fillColor=none;html=1;fontSize=24;fontStyle=1;verticalAlign=middle;align=center;movable=0;resizable=0;rotatable=0;deletable=0;editable=0;connectable=0;" parent="10" vertex="1">
                    <mxGeometry x="120" y="8" width="100" height="42" as="geometry"/>
                </mxCell>
                <mxCell id="7" value="" style="line;strokeWidth=4;html=1;perimeter=backbonePerimeter;points=[];outlineConnect=0;" parent="10" vertex="1">
                    <mxGeometry y="180" width="340" height="10" as="geometry"/>
                </mxCell>
                <mxCell id="8" value="&lt;font style=&quot;font-size: 15px;&quot;&gt;name : String&lt;br&gt;balance :double&lt;/font&gt;" style="text;strokeColor=none;fillColor=none;html=1;whiteSpace=wrap;verticalAlign=middle;overflow=hidden;" parent="10" vertex="1">
                    <mxGeometry x="11" y="50" width="180" height="80" as="geometry"/>
                </mxCell>
                <mxCell id="9" value="&lt;font style=&quot;font-size: 15px;&quot;&gt;BookBank(name:String, balance:double)&lt;br&gt;deposit(money): boolean&lt;br&gt;withdraw(money): boolean&lt;br&gt;print(): void&lt;br&gt;&lt;/font&gt;" style="text;strokeColor=none;fillColor=none;html=1;whiteSpace=wrap;verticalAlign=middle;overflow=hidden;" parent="10" vertex="1">
                    <mxGeometry x="11" y="210" width="289" height="80" as="geometry"/>
                </mxCell>
                <mxCell id="12" value="" style="group" parent="1" vertex="1" connectable="0">
                    <mxGeometry x="450" y="250" width="530.83" height="530" as="geometry"/>
                </mxCell>
                <mxCell id="13" value="" style="shape=ext;double=1;whiteSpace=wrap;html=1;aspect=fixed;" parent="12" vertex="1">
                    <mxGeometry width="470" height="470" as="geometry"/>
                </mxCell>
                <mxCell id="14" value="" style="line;strokeWidth=4;html=1;perimeter=backbonePerimeter;points=[];outlineConnect=0;" parent="12" vertex="1">
                    <mxGeometry x="0.83" y="30" width="469.17" height="47.06" as="geometry"/>
                </mxCell>
                <mxCell id="15" value="Robot" style="text;strokeColor=none;fillColor=none;html=1;fontSize=24;fontStyle=1;verticalAlign=middle;align=center;movable=0;resizable=0;rotatable=0;deletable=0;editable=0;connectable=0;" parent="12" vertex="1">
                    <mxGeometry x="185" y="9.76" width="100" height="42" as="geometry"/>
                </mxCell>
                <mxCell id="16" value="" style="line;strokeWidth=4;html=1;perimeter=backbonePerimeter;points=[];outlineConnect=0;" parent="12" vertex="1">
                    <mxGeometry y="211.76" width="470" height="11.76" as="geometry"/>
                </mxCell>
                <mxCell id="17" value="&lt;font style=&quot;font-size: 15px;&quot;&gt;-name : String &amp;lt;&amp;lt;private&amp;gt;&amp;gt;&lt;br&gt;-symbol : char&lt;br&gt;-x : int&lt;br&gt;-y : int&lt;br&gt;+X_MIN : int = 0 &amp;lt;&amp;lt;public&amp;gt;&amp;gt;&lt;br&gt;+X_MAX : int = 19&lt;br&gt;+Y_MIN : int = 0&lt;br&gt;+Y_MAX : int = 19&lt;br&gt;&lt;/font&gt;" style="text;strokeColor=none;fillColor=none;html=1;whiteSpace=wrap;verticalAlign=middle;overflow=hidden;" parent="12" vertex="1">
                    <mxGeometry x="9.1" y="51.76" width="290.9" height="160" as="geometry"/>
                </mxCell>
                <mxCell id="18" value="&lt;span style=&quot;font-size: 15px;&quot;&gt;+Robot(name:String, symbol:char, x:int, y:int)&lt;br&gt;+up() : boolean&lt;br&gt;&lt;/span&gt;&lt;span style=&quot;font-size: 15px;&quot;&gt;+down() : boolean&lt;br&gt;&lt;/span&gt;&lt;span style=&quot;font-size: 15px;&quot;&gt;+left() : boolean&lt;br&gt;&lt;/span&gt;&lt;span style=&quot;font-size: 15px;&quot;&gt;+right() : boolean&lt;/span&gt;&lt;span style=&quot;font-size: 15px;&quot;&gt;&lt;br&gt;&lt;/span&gt;" style="text;strokeColor=none;fillColor=none;html=1;whiteSpace=wrap;verticalAlign=middle;overflow=hidden;" parent="12" vertex="1">
                    <mxGeometry x="9.1" y="212" width="400.9" height="176.47" as="geometry"/>
                </mxCell>
            </root>
        </mxGraphModel>
    </diagram>
</mxfile>